Example 3: Disposition
…
Loads data into workspace

lib_load: library 'sdtm' loaded

Prepare DM data

datastep: columns decreased from 24 to 2

# A tibble: 85 × 2
   USUBJID    ARM  
   <chr>      <chr>
 1 ABC-01-049 ARM D
 2 ABC-01-050 ARM B
 3 ABC-01-051 ARM A
 4 ABC-01-052 ARM C
 5 ABC-01-053 ARM B
 6 ABC-01-054 ARM D
 7 ABC-01-055 ARM C
 8 ABC-01-056 ARM A
 9 ABC-01-113 ARM D
10 ABC-01-114 ARM B
# ℹ 75 more rows
# ℹ Use `print(n = ...)` to see more rows

Prepare DS data

datastep: columns decreased from 9 to 4

# A tibble: 87 × 4
   USUBJID    DSTERM                                                 DSDECOD                        DSCAT         
   <chr>      <chr>                                                  <chr>                          <chr>         
 1 ABC-01-049 SUBJECT COMPLETED ALL VISITS AND PROTOCOL REQUIREMENTS COMPLETED                      DISPOSITION E…
 2 ABC-01-050 SUBJECT COMPLETED ALL VISITS AND PROTOCOL REQUIREMENTS COMPLETED                      DISPOSITION E…
 3 ABC-01-051 SUBJECT COMPLETED ALL VISITS AND PROTOCOL REQUIREMENTS COMPLETED                      DISPOSITION E…
 4 ABC-01-052 SUBJECT COMPLETED ALL VISITS AND PROTOCOL REQUIREMENTS COMPLETED                      DISPOSITION E…
 5 ABC-01-053 NON-COMPLIANCE WITH STUDY DRUG                         NON-COMPLIANCE WITH STUDY DRUG DISPOSITION E…
 6 ABC-01-054 SUBJECT COMPLETED ALL VISITS AND PROTOCOL REQUIREMENTS COMPLETED                      DISPOSITION E…
 7 ABC-01-055 SUBJECT COMPLETED ALL VISITS AND PROTOCOL REQUIREMENTS COMPLETED                      DISPOSITION E…
 8 ABC-01-056 SUBJECT COMPLETED ALL VISITS AND PROTOCOL REQUIREMENTS COMPLETED                      DISPOSITION E…
 9 ABC-01-113 SUBJECT COMPLETED ALL VISITS AND PROTOCOL REQUIREMENTS COMPLETED                      DISPOSITION E…
10 ABC-01-114 SUBJECT COMPLETED ALL VISITS AND PROTOCOL REQUIREMENTS COMPLETED                      DISPOSITION E…
# ℹ 77 more rows
# ℹ Use `print(n = ...)` to see more rows

Join DM with DS to get ARMs on DS

datastep: columns increased from 2 to 5

# A tibble: 87 × 5
   USUBJID    ARM   DSTERM                                                 DSDECOD                        DSCAT   
   <chr>      <chr> <chr>                                                  <chr>                          <chr>   
 1 ABC-01-049 ARM D SUBJECT COMPLETED ALL VISITS AND PROTOCOL REQUIREMENTS COMPLETED                      DISPOSI…
 2 ABC-01-050 ARM B SUBJECT COMPLETED ALL VISITS AND PROTOCOL REQUIREMENTS COMPLETED                      DISPOSI…
 3 ABC-01-051 ARM A SUBJECT COMPLETED ALL VISITS AND PROTOCOL REQUIREMENTS COMPLETED                      DISPOSI…
 4 ABC-01-052 ARM C SUBJECT COMPLETED ALL VISITS AND PROTOCOL REQUIREMENTS COMPLETED                      DISPOSI…
 5 ABC-01-053 ARM B NON-COMPLIANCE WITH STUDY DRUG                         NON-COMPLIANCE WITH STUDY DRUG DISPOSI…
 6 ABC-01-054 ARM D SUBJECT COMPLETED ALL VISITS AND PROTOCOL REQUIREMENTS COMPLETED                      DISPOSI…
 7 ABC-01-055 ARM C SUBJECT COMPLETED ALL VISITS AND PROTOCOL REQUIREMENTS COMPLETED                      DISPOSI…
 8 ABC-01-056 ARM A SUBJECT COMPLETED ALL VISITS AND PROTOCOL REQUIREMENTS COMPLETED                      DISPOSI…
 9 ABC-01-113 ARM D SUBJECT COMPLETED ALL VISITS AND PROTOCOL REQUIREMENTS COMPLETED                      DISPOSI…
10 ABC-01-114 ARM B SUBJECT COMPLETED ALL VISITS AND PROTOCOL REQUIREMENTS COMPLETED                      DISPOSI…
# ℹ 77 more rows
# ℹ Use `print(n = ...)` to see more rows
…
datastep: columns increased from 6 to 7

# A tibble: 3 × 7
  group         cat   catseq `ARM A`     `ARM B`     `ARM C`     `ARM D`    
  <chr>         <lgl>  <dbl> <chr>       <chr>       <chr>       <chr>      
1 COMPLETED     NA         1 19 ( 95.0%) 17 ( 81.0%) 16 ( 76.2%) 20 ( 87.0%)
2 NONCOMPLIANCE NA         1 0 (  0.0%)  1 (  4.8%)  0 (  0.0%)  0 (  0.0%) 
3 OTHER         NA         1 1 (  5.0%)  3 ( 14.3%)  5 ( 23.8%)  3 ( 13.0%) 

Pull out subjects who completed study.

datastep: columns increased from 5 to 6

# A tibble: 74 × 6
   USUBJID    ARM   DSTERM                                                 DSDECOD   DSCAT             TERMDECOD  
   <chr>      <fct> <chr>                                                  <chr>     <chr>             <chr>      
 1 ABC-01-049 ARM D SUBJECT COMPLETED ALL VISITS AND PROTOCOL REQUIREMENTS COMPLETED DISPOSITION EVENT Subject Co…
 2 ABC-01-050 ARM B SUBJECT COMPLETED ALL VISITS AND PROTOCOL REQUIREMENTS COMPLETED DISPOSITION EVENT Subject Co…
 3 ABC-01-051 ARM A SUBJECT COMPLETED ALL VISITS AND PROTOCOL REQUIREMENTS COMPLETED DISPOSITION EVENT Subject Co…
 4 ABC-01-052 ARM C SUBJECT COMPLETED ALL VISITS AND PROTOCOL REQUIREMENTS COMPLETED DISPOSITION EVENT Subject Co…
 5 ABC-01-054 ARM D SUBJECT COMPLETED ALL VISITS AND PROTOCOL REQUIREMENTS COMPLETED DISPOSITION EVENT Subject Co…
 6 ABC-01-055 ARM C SUBJECT COMPLETED ALL VISITS AND PROTOCOL REQUIREMENTS COMPLETED DISPOSITION EVENT Subject Co…
 7 ABC-01-056 ARM A SUBJECT COMPLETED ALL VISITS AND PROTOCOL REQUIREMENTS COMPLETED DISPOSITION EVENT Subject Co…
 8 ABC-01-113 ARM D SUBJECT COMPLETED ALL VISITS AND PROTOCOL REQUIREMENTS COMPLETED DISPOSITION EVENT Subject Co…
 9 ABC-01-114 ARM B SUBJECT COMPLETED ALL VISITS AND PROTOCOL REQUIREMENTS COMPLETED DISPOSITION EVENT Subject Co…
10 ABC-02-033 ARM C SUBJECT COMPLETED ALL VISITS AND PROTOCOL REQUIREMENTS COMPLETED DISPOSITION EVENT Subject Co…
# ℹ 64 more rows
# ℹ Use `print(n = ...)` to see more rows
…
